CARD • CARD
…
> res
$metaEX
# A tibble: 1 × 19
  variable_en unit_en      name_en description_en method_en sampling_period_en
  <chr>       <chr>        <chr>   <chr>          <chr>     <chr>             
1 QA          m^{3}.s^{-1} Annual… ""             1. annua… 09-01, 08-31      
# ℹ 13 more variables: topic_en <chr>, variable_fr <chr>, unit_fr <chr>,
#   name_fr <chr>, description_fr <chr>, method_fr <chr>,
#   sampling_period_fr <chr>, topic_fr <chr>,
#   preferred_hydrological_month <dbl>, is_date <lgl>, to_normalise <lgl>,
#   palette <chr>, script_path <chr>

$dataEX
$dataEX$QA
# A tibble: 21 × 3
   code       Date          QA
   <chr>      <date>     <dbl>
 1 A273011002 1998-09-01   NA 
 2 A273011002 1999-09-01 7048.
 3 A273011002 2000-09-01 6409.
 4 A273011002 2001-09-01 6403.
 5 A273011002 2002-09-01 4850.
 6 A273011002 2003-09-01 3768.
 7 A273011002 2004-09-01 5044.
 8 A273011002 2005-09-01 4805.
 9 A273011002 2006-09-01 7095.
10 A273011002 2007-09-01 5575.
# ℹ 11 more rows
# ℹ Use `print(n = ...)` to see more rows

So the result is a list of the metadata of the extraction in the metaEX tibble and the result of the extraction in the dataEX tibble.

Many CARDs are available. If you want to have a look of every current possibilities, use the CARD_list_all() function

metaEX_all = CARD_list_all()

which gives

> metaEX_all
# A tibble: 565 × 20
   variable_en     unit_en name_en description_en method_en sampling_period_en
   <chr>           <chr>   <chr>   <chr>          <chr>     <chr>             
 1 ETPA            mm      Cumula… ""             ""        09-01, 08-31      
 2 BFI_Wal         withou… Basefl… "Ratio betwe…" "1. no …" NA                
 3 BFM             withou… Basefl… ""             "1. no …" NA                
 4 delta{BFI}_LH_… withou… Change… "Ratio betwe…" "1. no …" NA                
 5 delta{BFI}_LH_… withou… Change… "Ratio betwe…" "1. no …" NA                
 6 delta{BFI}_LH_… withou… Change… "Ratio betwe…" "1. no …" NA                
 7 delta{BFI}_Wal… withou… Change… "Ratio betwe…" "1. no …" NA                
 8 delta{BFI}_Wal… withou… Change… "Ratio betwe…" "1. no …" NA                
 9 delta{BFI}_Wal… withou… Change… "Ratio betwe…" "1. no …" NA                
10 delta{centerBF… day     Averag… "Date when 5…" "1. ann…" 09-01, 08-31      
# ℹ 555 more rows
# ℹ 14 more variables: topic_en <chr>, variable_fr <chr>, unit_fr <chr>,
#   name_fr <chr>, description_fr <chr>, method_fr <chr>,
#   sampling_period_fr <chr>, topic_fr <chr>, source <chr>,
#   preferred_hydrological_month <int>, is_date <lgl>, to_normalise <lgl>,
#   palette <chr>, script_path <chr>
# ℹ Use `print(n = ...)` to see more rows
…
$dataEX
$dataEX$`VCN10-5`
# A tibble: 2 × 3
  code       `VCN10-5_obs` `VCN10-5_sim`
  <chr>              <dbl>         <dbl>
1 A273011002          914.          901.
2 H622101001         2770.         2769.

$dataEX$QMNA
# A tibble: 40 × 4
   code       Date       QMNA_obs QMNA_sim
   <chr>      <date>        <dbl>    <dbl>
 1 A273011002 1999-01-01    1050.    1070.
 2 A273011002 2000-01-01    2586.    2569.
 3 A273011002 2001-01-01    1401.    1408.
 4 A273011002 2002-01-01    1463.    1454.
 5 A273011002 2003-01-01    1182.    1167.
 6 A273011002 2004-01-01    1362.    1354.
 7 A273011002 2005-01-01    1245.    1264.
 8 A273011002 2006-01-01    1770     1778.
 9 A273011002 2007-01-01    1889.    1875.
10 A273011002 2008-01-01    1669.    1659.
# ℹ 30 more rows
# ℹ Use `print(n = ...)` to see more rows

$dataEX$QA
# A tibble: 42 × 4
   code       Date       QA_obs QA_sim
   <chr>      <date>      <dbl>  <dbl>
 1 A273011002 1998-09-01    NA     NA 
 2 A273011002 1999-09-01  7048.  7049.
 3 A273011002 2000-09-01  6409.  6419.
 4 A273011002 2001-09-01  6403.  6407.
 5 A273011002 2002-09-01  4850.  4842.
 6 A273011002 2003-09-01  3768.  3763.
 7 A273011002 2004-09-01  5044.  5045.
 8 A273011002 2005-09-01  4805.  4805.
 9 A273011002 2006-09-01  7095.  7093.
10 A273011002 2007-09-01  5575.  5562.
# ℹ 32 more rows
# ℹ Use `print(n = ...)` to see more rows
…
