CARD_list_all — CARD_list_all • CARD
…
    See also

CARD_list_all() list all available CARD.

CARD_management() for managing CARD parameterization files.

CARD_extraction() for extracting variables using CARD.

    Examples

# Get all the available variables
metaEX_all = CARD_list_all()
# And why note filter it by topic
dplyr::filter(metaEX_all, grepl("Low Flow", topic_en))
#> # A tibble: 144 × 22
#>    CARD_name                variable_en unit_en name_en description_en method_en
#>    <chr>                    <chr>       <chr>   <chr>   <chr>          <chr>    
#>  1 delta{startLF}_summer_H1 delta{star… day     Averag… In summer, da… "1. no t…
#>  2 delta{startLF}_summer_H2 delta{star… day     Averag… In summer, da… "1. no t…
#>  3 delta{startLF}_summer_H3 delta{star… day     Averag… In summer, da… "1. no t…
#>  4 delta{centerLF}_summer_… delta{cent… day     Averag… In summer, da… "1. no t…
#>  5 delta{centerLF}_summer_… delta{cent… day     Averag… In summer, da… "1. no t…
#>  6 delta{centerLF}_summer_… delta{cent… day     Averag… In summer, da… "1. no t…
#>  7 delta{endLF}_summer_H1   delta{endL… day     Averag… In summer, da… "1. no t…
#>  8 delta{endLF}_summer_H2   delta{endL… day     Averag… In summer, da… "1. no t…
#>  9 delta{endLF}_summer_H3   delta{endL… day     Averag… In summer, da… "1. no t…
#> 10 delta{dtLF}_summer_H1    delta{dtLF… day     Averag… In summer, du… "1. no t…
#> # ℹ 134 more rows
#> # ℹ 16 more variables: sampling_period_en <chr>, topic_en <chr>,
#> #   variable_fr <chr>, unit_fr <chr>, name_fr <chr>, description_fr <chr>,
#> #   method_fr <chr>, sampling_period_fr <chr>, topic_fr <chr>,
#> #   input_vars <chr>, source <chr>, preferred_hydrological_month <int>,
#> #   is_date <lgl>, to_normalise <lgl>, palette <chr>, script_path <chr>
…
