CARD_extraction — CARD_extraction • CARD
…
CARD_list_all() list all available CARD.

CARD_management() for managing CARD parameterization files.

CARD_extraction() for extracting variables using CARD.

    Examples

library(CARD)

# Get all the available variables
metaEX_all = CARD_list_all()
metaEX_all
#> # A tibble: 565 × 22
#>    CARD_name          variable_en       unit_en name_en description_en method_en
#>    <chr>              <chr>             <chr>   <chr>   <chr>          <chr>    
#>  1 ETPA               ETPA              mm      Cumula… ""             ""       
#>  2 BFI_Wal            BFI_Wal           withou… Basefl… "Ratio betwee… "1. no t…
#>  3 BFM                BFM               withou… Basefl… ""             "1. no t…
#>  4 delta{BFI}_LH_H1   delta{BFI}_LH_H1  withou… Change… "Ratio betwee… "1. no t…
#>  5 delta{BFI}_LH_H2   delta{BFI}_LH_H2  withou… Change… "Ratio betwee… "1. no t…
#>  6 delta{BFI}_LH_H3   delta{BFI}_LH_H3  withou… Change… "Ratio betwee… "1. no t…
#>  7 delta{BFI}_Wal_H1  delta{BFI}_Wal_H1 withou… Change… "Ratio betwee… "1. no t…
#>  8 delta{BFI}_Wal_H2  delta{BFI}_Wal_H2 withou… Change… "Ratio betwee… "1. no t…
#>  9 delta{BFI}_Wal_H3  delta{BFI}_Wal_H3 withou… Change… "Ratio betwee… "1. no t…
#> 10 delta{centerBF}_H1 delta{centerBF}_… day     Averag… "Date when 50… "1. annu…
#> # ℹ 555 more rows
#> # ℹ 16 more variables: sampling_period_en <chr>, topic_en <chr>,
#> #   variable_fr <chr>, unit_fr <chr>, name_fr <chr>, description_fr <chr>,
#> #   method_fr <chr>, sampling_period_fr <chr>, topic_fr <chr>,
#> #   input_vars <chr>, source <chr>, preferred_hydrological_month <int>,
#> #   is_date <lgl>, to_normalise <lgl>, palette <chr>, script_path <chr>
…
#> [1] "├── Application of the function                   "
#> [1] "├── Cleaning extracted tibble                     "
#> [1] "│   ├── Manage possible infinite values           "
#> [1] "│   └── Recreate a date vector and add value for  "
#> [1] "│       NApct computing                           "
#> [1] "├── NA management                                 "
#> [1] "│   ├── Compute NA percentage                     "
#> [1] "│   ├── Removing data if NA percentage is         "
#> [1] "│   │   strictly above 3 %                        "
#> [1] "│   └── Cleaning NA percentage info               "
#> [1] "└── Last cleaning and formating for output        "
#> [1] "    ├── Rename column                             "
#> [1] "    ├── Keeping only the needed data : all        "
#> [1] "    └── Return data                               "
#> # A tibble: 8,675 × 4
#>    id      time           Q   QMA
#>    <chr>   <date>     <dbl> <dbl>
#>  1 serie 1 2001-03-02 11383    NA
#>  2 serie 1 2001-03-03 11384    NA
#>  3 serie 1 2001-03-04 11385    NA
#>  4 serie 1 2001-03-05 11386    NA
#>  5 serie 1 2001-03-06 11387    NA
#>  6 serie 1 2001-03-07 11388    NA
#>  7 serie 1 2001-03-08 11389    NA
#>  8 serie 1 2001-03-09 11390    NA
#>  9 serie 1 2001-03-10 11391    NA
#> 10 serie 1 2001-03-11 11392    NA
#> # ℹ 8,665 more rows
…
#> [1] "├── Grouping data                                 "
#> [1] "├── Application of the function                   "
#> [1] "├── Cleaning extracted tibble                     "
#> [1] "│   ├── Manage possible infinite values           "
#> [1] "│   └── Recreate a date vector and add value for  "
#> [1] "│       NApct computing                           "
#> [1] "├── NA management                                 "
#> [1] "│   ├── Compute NA percentage                     "
#> [1] "│   ├── Removing data if NA percentage is         "
#> [1] "│   │   strictly above 3 %                        "
#> [1] "│   └── Cleaning NA percentage info               "
#> [1] "└── Last cleaning and formating for output        "
#> [1] "    ├── Rename column                             "
#> [1] "    └── Return data                               "
#> # A tibble: 25 × 3
#>    id      time         QMNA
#>    <chr>   <date>      <dbl>
#>  1 serie 1 2000-11-01    NA 
#>  2 serie 1 2001-11-01 11642.
#>  3 serie 1 2002-11-01 12006.
#>  4 serie 1 2003-11-01 12372.
#>  5 serie 1 2004-11-01 12738.
#>  6 serie 1 2005-11-01 13102.
#>  7 serie 1 2006-11-01 13468.
#>  8 serie 1 2007-11-01 13832.
#>  9 serie 1 2008-11-01 14198.
#> 10 serie 1 2009-11-01 14564.
#> # ℹ 15 more rows
…
#> [1] "├── Grouping data                                 "
#> [1] "├── Application of the function                   "
#> [1] "├── Cleaning extracted tibble                     "
#> [1] "│   ├── Manage possible infinite values           "
#> [1] "│   └── Recreate a date vector and add value for  "
#> [1] "│       NApct computing                           "
#> [1] "├── NA management                                 "
#> [1] "│   ├── Compute NA percentage                     "
#> [1] "│   ├── Removing data if NA percentage is         "
#> [1] "│   │   strictly above 3 %                        "
#> [1] "│   └── Cleaning NA percentage info               "
#> [1] "└── Last cleaning and formating for output        "
#> [1] "    ├── Rename column                             "
#> [1] "    └── Return data                               "
#> # A tibble: 25 × 3
#>    id      time           QA
#>    <chr>   <date>      <dbl>
#>  1 serie 1 2000-09-01    NA 
#>  2 serie 1 2001-09-01 11748 
#>  3 serie 1 2002-09-01 12113 
#>  4 serie 1 2003-09-01 12478.
#>  5 serie 1 2004-09-01 12844 
#>  6 serie 1 2005-09-01 13209 
#>  7 serie 1 2006-09-01 13574 
#>  8 serie 1 2007-09-01 13940.
#>  9 serie 1 2008-09-01 14305 
#> 10 serie 1 2009-09-01 14670 
#> # ℹ 15 more rows
…
#> $metaEX
#> # A tibble: 2 × 20
#>   variable_en unit_en      name_en   description_en method_en sampling_period_en
#>   <chr>       <chr>        <chr>     <chr>          <chr>     <chr>             
#> 1 QMNA        m^{3}.s^{-1} Annual m… ""             "1. mont… Month of maximum …
#> 2 QA          m^{3}.s^{-1} Annual m… ""             "1. annu… 09-01, 08-31      
#> # ℹ 14 more variables: topic_en <chr>, variable_fr <chr>, unit_fr <chr>,
#> #   name_fr <chr>, description_fr <chr>, method_fr <chr>,
#> #   sampling_period_fr <chr>, topic_fr <chr>, input_vars <chr>,
#> #   preferred_sampling_period <chr>, is_date <lgl>, to_normalise <lgl>,
#> #   palette <chr>, script_path <chr>
#> 
#> $dataEX
#> $dataEX$QMNA
#> # A tibble: 25 × 3
#>    id      time         QMNA
#>    <chr>   <date>      <dbl>
#>  1 serie 1 2000-11-01    NA 
#>  2 serie 1 2001-11-01 11642.
#>  3 serie 1 2002-11-01 12006.
#>  4 serie 1 2003-11-01 12372.
#>  5 serie 1 2004-11-01 12738.
#>  6 serie 1 2005-11-01 13102.
#>  7 serie 1 2006-11-01 13468.
#>  8 serie 1 2007-11-01 13832.
#>  9 serie 1 2008-11-01 14198.
#> 10 serie 1 2009-11-01 14564.
#> # ℹ 15 more rows
#> 
#> $dataEX$QA
#> # A tibble: 25 × 3
#>    id      time           QA
#>    <chr>   <date>      <dbl>
#>  1 serie 1 2000-09-01    NA 
#>  2 serie 1 2001-09-01 11748 
#>  3 serie 1 2002-09-01 12113 
#>  4 serie 1 2003-09-01 12478.
#>  5 serie 1 2004-09-01 12844 
#>  6 serie 1 2005-09-01 13209 
#>  7 serie 1 2006-09-01 13574 
#>  8 serie 1 2007-09-01 13940.
#>  9 serie 1 2008-09-01 14305 
#> 10 serie 1 2009-09-01 14670 
#> # ℹ 15 more rows
…
#> [1] "│       ├── Get general sample info               "
#> [1] "├── Grouping data                                 "
#> [1] "├── Application of the function                   "
#> [1] "├── Cleaning extracted tibble                     "
#> [1] "│   ├── Manage possible infinite values           "
#> [1] "│   └── Recreate a date vector and add value for  "
#> [1] "│       NApct computing                           "
#> [1] "├── NA management                                 "
#> [1] "│   ├── Compute NA percentage                     "
#> [1] "│   └── Cleaning NA percentage info               "
#> [1] "└── Last cleaning and formating for output        "
#> [1] "    ├── Rename column                             "
#> [1] "    ├── Keeping only the needed data : all        "
#> [1] "    └── Return data                               "
#> # A tibble: 8,675 × 4
#>    id      time           Q   VC10
#>    <chr>   <date>     <dbl>  <dbl>
#>  1 serie 1 2001-03-02 11383    NA 
#>  2 serie 1 2001-03-03 11384    NA 
#>  3 serie 1 2001-03-04 11385    NA 
#>  4 serie 1 2001-03-05 11386    NA 
#>  5 serie 1 2001-03-06 11387 11388.
#>  6 serie 1 2001-03-07 11388 11388.
#>  7 serie 1 2001-03-08 11389 11390.
#>  8 serie 1 2001-03-09 11390 11390.
#>  9 serie 1 2001-03-10 11391 11392.
#> 10 serie 1 2001-03-11 11392 11392.
#> # ℹ 8,665 more rows
…
#> [1] "├── Grouping data                                 "
#> [1] "├── Application of the function                   "
#> [1] "├── Cleaning extracted tibble                     "
#> [1] "│   ├── Manage possible infinite values           "
#> [1] "│   └── Recreate a date vector and add value for  "
#> [1] "│       NApct computing                           "
#> [1] "├── NA management                                 "
#> [1] "│   ├── Compute NA percentage                     "
#> [1] "│   ├── Removing data if NA percentage is         "
#> [1] "│   │   strictly above 3 %                        "
#> [1] "│   └── Cleaning NA percentage info               "
#> [1] "└── Last cleaning and formating for output        "
#> [1] "    ├── Rename column                             "
#> [1] "    └── Return data                               "
#> # A tibble: 25 × 3
#>    id      time        VCN10
#>    <chr>   <date>      <dbl>
#>  1 serie 1 2000-11-01    NA 
#>  2 serie 1 2001-11-01 11628.
#>  3 serie 1 2002-11-01 11992.
#>  4 serie 1 2003-11-01 12358.
#>  5 serie 1 2004-11-01 12724.
#>  6 serie 1 2005-11-01 13088.
#>  7 serie 1 2006-11-01 13454.
#>  8 serie 1 2007-11-01 13818.
#>  9 serie 1 2008-11-01 14184.
#> 10 serie 1 2009-11-01 14550.
#> # ℹ 15 more rows
…
